
#sql("StuGrantInfo")
SELECT
	t.*, t_apply.grantLevel
FROM
	(
		SELECT
			t_grant.*, t_student.`name` AS stuName,
			t_admin.`name` AS adminName
		FROM
			t_grant,
			t_admin,
			t_student
		WHERE
			t_grant.stuId = t_student.stuId
		AND t_grant.adminId = t_admin.admin_id
	) as t
LEFT JOIN t_apply ON t.applyId = t_apply.applyId where t.stuId=#para(0)
#end


#sql("adminFindGrantinfo_0")
SELECT
	t_grant.*,
	t_student.`name` as stuName,
	t_admin.`name` as adminName,
t_apply.grantLevel
FROM
	t_grant,
	t_admin,
	t_student,
t_apply
WHERE
	t_grant.stuId = t_student.stuId
AND t_grant.adminId = t_admin.admin_id
and t_grant.applyId = t_apply.applyId and t_grant.grantStatus=0
#end

#sql("adminFindGrantinfo_1")
SELECT
	t_grant.*,
	t_student.`name` as stuName,
	t_admin.`name` as adminName,
t_apply.grantLevel
FROM
	t_grant,
	t_admin,
	t_student,
t_apply
WHERE
	t_grant.stuId = t_student.stuId
AND t_grant.adminId = t_admin.admin_id
and t_grant.applyId = t_apply.applyId and t_grant.grantStatus=1
#end
#sql("grantInfo")
SELECT
	t.*, t_apply.grantLevel
FROM
	(
		SELECT
			t_grant.*, t_student.`name` AS stuName,
			t_admin.`name` AS adminName
		FROM
			t_grant,
			t_admin,
			t_student
		WHERE
			t_grant.stuId = t_student.stuId
		AND t_grant.adminId = t_admin.admin_id
	) as t
LEFT JOIN t_apply ON t.applyId = t_apply.applyId
#end
#sql("adminFindApplyinfo_0")
SELECT
	t_apply.*,t_student.`name`
FROM
	t_apply,t_student
where t_apply.stuId=t_student.stuId and t_apply.`status`=0
#end
#sql("adminFindApplyinfo_1")
SELECT
	t_apply.*,t_student.`name`
FROM
	t_apply,t_student
where t_apply.stuId=t_student.stuId and t_apply.`status`=1
#end

#sql("adminFindApplyinfo_2")
SELECT
	t_apply.*,t_student.`name`
FROM
	t_apply,t_student
where t_apply.stuId=t_student.stuId and t_apply.`status`=2
#end

#sql("adminFindApplyById")
SELECT
	t_apply.*, t_student.`name`,t_student.tel
FROM
	t_apply,
	t_student
WHERE
	t_apply.applyId =?
AND t_apply.stuId = t_student.stuId
#end

#sql("adminFindApplyinfo")
SELECT
	t_apply.*,t_student.`name`
FROM
	t_apply,t_student
where t_apply.stuId=t_student.stuId
#end
#sql("findAdminById")
SELECT
	*
FROM
	t_admin,
	t_class
WHERE
	t_admin.classNumber = t_class.classId
AND t_admin.admin_id = ?
#end

#sql("findAdminByName")
SELECT
	*
FROM
	t_admin,
	t_class
WHERE
	t_admin.classNumber = t_class.classId
AND t_admin.`name` = ?
#end
#sql("findlAllUser")
SELECT
	*
FROM
	t_admin,
	t_class
WHERE
	t_admin.classNumber = t_class.classId
#end

#sql("findStuByName")
SELECT
	*
FROM
	t_student,
	t_class
WHERE
	t_student.classNumber = t_class.classId
AND t_student.`name` = ?
#end

#sql("findStuByStuid")
SELECT
	*
FROM
	t_student,
	t_class
WHERE
	t_student.classNumber = t_class.classId
AND t_student.stuId = ?
#end

#sql("findAllStu")
SELECT
	*
FROM
	t_student,
	t_class
WHERE
	t_student.classNumber = t_class.classId
#end

#sql("modify_admin_info")
UPDATE t_admin
SET
	`name`=?,
	`password`=?,
	address=?,
	tel=?,
	gender=?,
	classNumber=?
WHERE
	admin_id = ?
#end


#sql("search_admin_info")
SELECT
	*
FROM
	t_admin,t_class
WHERE
	admin_id = ? and t_admin.classNumber=t_class.classId

#end

#sql("search_apply")
SELECT
	t_apply.*, t_student.`name`,t_student.tel
FROM
	t_apply,
	t_student
WHERE
	t_apply.stuId =?
AND t_apply.stuId = t_student.stuId
#end
#sql("search_stu_info")
SELECT
	*
FROM
	(
		SELECT
			t_student.*, t_class.className
		FROM
			t_student,
			t_class
		WHERE
			t_student.classNumber = t_class.classId
	) AS temp_table
WHERE
	stuId = ?
#end


#sql("checkLoginUser_stu")
SELECT
	*
FROM
	(
		SELECT
			t_student.*, t_class.className
		FROM
			t_student,
			t_class
		WHERE
			t_student.classNumber = t_class.classId
	) as temp_table
  WHERE name = ? AND password = ?
#end

#sql("checkLoginUser_admin")
SELECT * FROM t_admin WHERE name = ? AND password = ?
#end

#sql("find_class")
select * from t_class
#end



